﻿Name,Email,Country Code,Mobile,Budget / Message,Source URL,Source,Date,Project
Sravan,sravanmks@gmail.com,,9964028946,,,Google,24-02-2021 17:30,18 AND OAK
Natasha,marketing@assetzpropertyprojects.com,91,7889527128,,https://www.assetzproperty.com/38andbanyan/contact.php,Google Search,24-02-2021 11:33,38 AND BANYAN
Rajesab Kahle,kahlerajesab@gmail.com,91,9108695463,1 BHK (685-691 Sq Ft) - 43 L,https://www.assetzpropertybangalore.com/63eastlp/?utm_source=SocialMedia&utm_medium=FB&utm_campaign=conversion_re&fbclid=IwAR2cH9YY4jg899akjV1f3TGosvlR1IadoZ4erOdFGAnkhhMsP8UxInvt2Hc#form,SocialMedia,24-02-2021 07:36,63 DEGREES EAST
Babu,gopaldarjee54@gmail.com,91,9741020178,1 BHK (685-691 Sq Ft) - 43 L,https://www.assetzpropertybangalore.com/63eastlp/?utm_source=SocialMedia&utm_medium=FB&utm_campaign=conversion_re&fbclid=IwAR3fQY4WdYwxOr5ZRsJLLC1H3LSZSug4rxDV6bBkRWU5YJwhEbZXIoDfZOY,SocialMedia,24-02-2021 09:47,63 DEGREES EAST
Mallikarjun Magadum,pintumagadumm@gmail.com,91,9945096626,1 BHK (685-691 Sq Ft) - 43 L,https://www.assetzpropertybangalore.com/63eastlp/?utm_source=SocialMedia&utm_medium=FB&utm_campaign=conversion_re&fbclid=IwAR2bsFkUZYbr5b3dmnDVD6B7Hi10RZlhzXQeLHV9o0rAfq5WpFOfCRUwX0k,SocialMedia,24-02-2021 10:01,63 DEGREES EAST
javaregowda,javaregowda1977@gamil.com,91,9980926845,1 BHK (685-691 Sq Ft) - 43 L,https://www.assetzpropertybangalore.com/63eastlp/?utm_source=SocialMedia&utm_medium=FB&utm_campaign=conversion_re&fbclid=IwAR1JF8xCYidZS5u22oRenIl8kpBjTT6okKDvZh7Hkme0oMe2YalX7KmDBZo,SocialMedia,24-02-2021 10:11,63 DEGREES EAST
Promeswa boro Promeswa boro,promeswaborop@gmail.com,91,2465989896,1 BHK (685-691 Sq Ft) - 43 L,https://www.assetzpropertybangalore.com/63eastlp/?utm_source=SocialMedia&utm_medium=FB&utm_campaign=conversion_re&fbclid=IwAR0niXsvXZOY2X4f4Y6Qgc1xGFLpE_wVulNgjOMnLJ40lVJ_Juk2xZQdJN0,SocialMedia,24-02-2021 20:48,63 DEGREES EAST
Srinivas Murthy,srinivasmurthy9900910030@gmail.com,191,9900910030,1 BHK (685-691 Sq Ft) - 43 L,https://www.assetzpropertybangalore.com/63eastlp/?utm_source=SocialMedia&utm_medium=FB&utm_campaign=conversion_lookalike&fbclid=IwAR0ah2_8tmDtOIJoyF7L6MdRTJRCI9uAv96ChidAYAlC2DanZ8j2gCb5VBQ,SocialMedia,24-02-2021 21:26,63 DEGREES EAST
Vikramkumar,vk7754905258@gmail.com,91,7754905258,1 BHK (685-691 Sq Ft) - 43 L,https://www.assetzpropertybangalore.com/63eastlp/?utm_source=SocialMedia&utm_medium=FB&utm_campaign=conversion_re&fbclid=IwAR15CVjOfGRWGxDgNJoam4m-2unq0m66R4iebKCwjPJMwU_b5c05wf9E7ic,SocialMedia,24-02-2021 21:58,63 DEGREES EAST
Anand Kushal,anandkushal13@gmail.com,91,9353974217,1 BHK (685-691 Sq Ft) - 43 L,https://www.assetzpropertybangalore.com/63eastlp/?utm_source=SocialMedia&utm_medium=FB&utm_campaign=conversion_lookalike&fbclid=IwAR22q9oMP6dXeamM7fC0IXivnfX68r7W2x4X1q3tepHB5g8EKgYd3Tq-aSU,SocialMedia,24-02-2021 23:50,63 DEGREES EAST
Bvs prasad,bvenkatasatyaprasad@gmail.com,91,9246480560,,https://www.assetzpropertybangalore.com/63east-towerB/tower-b-amp-page/?utm_source=Google&utm_medium=Display&utm_campaign=12304407812&utm_device=m&utm_target=&utm_term=m.greatandhra.com&gclid=Cj0KCQiA7NKBBhDBARIsAHbXCB7-m4JNxyPQoQ6Y94UMykeIGG0YqP_DUD3eKpyDuCCJhuPN7DmQv38aAlMPEALw_wcB,Google Display,24-02-2021 09:12,63 DEGREES EAST
Jsjjds,hhsjs@gmail.com,91,8976698765,,https://www.assetzpropertybangalore.com/63east-towerB/tower-b-amp-page/,Google Search,24-02-2021 22:45,63 DEGREES EAST
Manjunath,manjunathkolandaswamy@mail.com,91,9008928009,Whatsap,https://www.assetzpropertybangalore.com/findyourikigai/?utm_source=Google&utm_medium=Display&utm_campaign=9469114206&utm_device=m&utm_target=segment_be_a_6935822436949844670&utm_term=mobileapp%3A%3A2-color.dev.com.whatsremoved&gclid=Cj0KCQiA7NKBBhDBARIsAHbXCB6Km6Y5FoofOVueScNNE1UJYDk7vjXl1ErwES7Z6rP4lKegu_ArBekaAio2EALw_wcB,Google Display,24-02-2021 08:07,ATMOS AND AURA
dayalan,dayalan_2000_2000@yahoo.com,91,7348901042,,https://www.assetzpropertybangalore.com/findyourikigai/?utm_source=Google&utm_medium=Display&utm_campaign=9468906135&utm_device=c&utm_target=segment_be_a_5134318087563729305&utm_term=combinepdf.com&gclid=EAIaIQobChMIvOKNtO2B7wIVyJdwCh1KDAhjEAEYASAAEgL0kfD_BwE,Google Display,24-02-2021 11:47,ATMOS AND AURA
Madhu,madhu2loki@gmail.com,91,7258392613,Hai,https://www.assetzpropertybangalore.com/findyourikigai/?utm_source=Google&utm_medium=Display&utm_campaign=9469114206&utm_device=m&utm_target=segment_be_a_5134318087563729305&utm_term=mobileapp%3A%3A2-com.superstatus.status.saver&gclid=Cj0KCQiAj9iBBhCJARIsAE9qRtD359yXHAS2bUVbwcA8Qm7tuFejx94BV7F5aEgiFXLQFIwUWX04LHQaAmG_EALw_wcB,Google Display,24-02-2021 17:06,ATMOS AND AURA
R Ramanjaneya,rramanjaneya69@gmail.com,91,9740242938,,https://www.assetzpropertybangalore.com/findyourikigai/?utm_source=Google&utm_medium=Display&utm_campaign=9469114206&utm_device=m&utm_target=segment_be_a_6935822436949844670&utm_term=15.android.com.xdev.docxreader.docx.docxviewer.document.doc.office.viewer.reader.word.adsenseformobileapps.com&gclid=Cj0KCQiAj9iBBhCJARIsAE9qRtCN5JmKtAZqYXzwNUZSsgfzNznVkGbZDtopCuLJc9VDA_p0dtOO4B0aAiAnEALw_wcB,Google Display,24-02-2021 18:30,ATMOS AND AURA
Hosurumanjunatha,hmanjunatha@gmail.com,91,8008900149,Please amount sir,https://www.assetzpropertybangalore.com/findyourikigai/?utm_source=Google&utm_medium=Display&utm_campaign=9469114206&utm_device=m&utm_target=segment_be_a_6935822436949844670&utm_term=mobileapp%3A%3A2-com.readpdf.pdfreader.pdfviewer&gclid=Cj0KCQiAj9iBBhCJARIsAE9qRtCKPuPi3jiZ_PTLcJ4OIbrFl3qmYUCBQH2ESCu60IzyyKLMhdkVx6gaArikEALw_wcB,Google Display,24-02-2021 18:35,ATMOS AND AURA
Viswanatha,patil.pv@gmail.com,91,9739982649,,https://www.assetzpropertybangalore.com/findyourikigai/?utm_source=Ad%20words&utm_medium=Google&utm_campaign=9549981746&utm_content=118297575819&utm_matchtype=p&utm_device=m&utm_target&utm_term&gclid=Cj0KCQiAj9iBBhCJARIsAE9qRtCo_-2uGNr_4AZyyLlFmMxg4PwiyjvpyGjsyOEDZ7DzCZRfQGySEhIaAvS9EALw_wcB,Google Adwords,24-02-2021 19:55,ATMOS AND AURA
SUBRAMANYA A E,subramanyababu01@gmail.com,91,8971942430,,https://www.assetzpropertybangalore.com/canvasandcovelp/?utm_source=SocialMedia&utm_medium=FB&utm_campaign=web_conversions_re,Social Media,24-02-2021 12:15,CANVAS AND COVE
Krishna Dhami,kribaskr1977@gmail.com,91,8861464119,,https://www.assetzpropertybangalore.com/canvasandcovelp/?utm_source=SocialMedia&utm_medium=FB&utm_campaign=web_conversions_lookalike,Social Media,24-02-2021 16:06,CANVAS AND COVE
balajichavan,balajichavan831@gmail.com,91,7757079706,,https://www.assetzpropertybangalore.com/earthandessenceplots/?utm_source=Google&utm_medium=Display&utm_campaign=12199321604&utm_device=m&utm_target&utm_term=mobileapp%3A%3A2-com.hebackup&gclid=Cj0KCQiA7NKBBhDBARIsAHbXCB68miSpyvO2QxDXzbTY8tj8uiTyXVZlTWrqjwfhJy2JmQ4FWzwmPscaAm0wEALw_wcB,Google Display,24-02-2021 10:40,EARTH AND ESSENCE
Chaudhari Atul Kumar,atulbhai527y@gmail.com,91,6355289623,,https://www.assetzpropertybangalore.com/earthandessenceplots/?utm_source=Google&utm_medium=Display&utm_campaign=12199321604&utm_device=m&utm_target=segment_be_a_1561482713303058021&utm_term=mobileapp%3A%3A2-com.safeshoponline.safeshoplogin.safeshopapp&gclid=Cj0KCQiA7NKBBhDBARIsAHbXCB6qHhMvbyEWy8jplK0CVRg3s2DpBHvd98O4ZREqTdIYJPEB_K2c7OkaAnicEALw_wcB,Google Display,24-02-2021 12:20,EARTH AND ESSENCE
Veeresh S,vnkulkarni8212@gmail.com,91,9845321878,,https://www.assetzpropertybangalore.com/earthandessenceplots/?utm_source=Google&utm_medium=Display&utm_campaign=12200343324&utm_device=c&utm_target&utm_term=www.yolinux.com&gclid=Cj0KCQiA7NKBBhDBARIsAHbXCB6zQk4OKC8hasFCq7Aje2Fha9H43vhaFq3XVNg-nTbnQNfpKAXK2TsaAnBPEALw_wcB,Google Display,24-02-2021 12:25,EARTH AND ESSENCE
Chaudhari Atul Kumar,atulbhai527y@gmail.com,91,6355289623,Hi,https://www.assetzpropertybangalore.com/earthandessenceplots/?utm_source=Google&utm_medium=Display&utm_campaign=12199321604&utm_device=m&utm_target=segment_be_a_1561482713303058021&utm_term=mobileapp%3A%3A2-com.safeshoponline.safeshoplogin.safeshopapp&gclid=Cj0KCQiA7NKBBhDBARIsAHbXCB4TnjAlOABuqp6wKo4XMMrDYd9FbUcSz9Ys3gE4leafq1fbnGxkankaApUpEALw_wcB,Google Display,24-02-2021 12:39,EARTH AND ESSENCE
NikhithaT,nikhithat2003@gmali.com,91,8310716351,,https://www.assetzpropertybangalore.com/earthandessenceplots/?utm_source=Google&utm_medium=Display&utm_campaign=12199321604&utm_device=m&utm_target&utm_term=mobileapp%3A%3A2-com.patternlockscreen.gesturelockscreen&gclid=Cj0KCQiAj9iBBhCJARIsAE9qRtCOEpBMbGmI3mFuw-WOQX_tVSs_RQwAimTCAssvo4l8UXxQgtoHYVIaAqcoEALw_wcB,Google Display,24-02-2021 14:11,EARTH AND ESSENCE
Deb,choudhuridebdutta@gmail.com,91,9167002379,,https://www.assetzproperty.com/leavesandlives/,Google Search,24-02-2021 10:45,LEAVES AND LIVES
Natasha,marketing@assetzpropertyprojects.com,91,7889527128,,https://www.assetzproperty.com/leavesandlives/contact-us.php,Google Search,24-02-2021 11:25,LEAVES AND LIVES
Smith,smithroy@gmail.com,91,8881290987,,https://www.assetzproperty.com/leavesandlives/,Google Search,24-02-2021 14:28,LEAVES AND LIVES
Felix,a.felixdcunha@gmail.com,91,9740890700,,https://www.assetzpropertybangalore.com/soulandsoil/home-amp/?utm_source=Google&utm_medium=Search&utm_campaign=1468925932&utm_device=m&utm_term=%2Bsoul%20%2Band%20%2Bsoil&gclid=Cj0KCQiAj9iBBhCJARIsAE9qRtBQiS2ODKQgIDh9zHziZeIdA1MQfNDHoFlls5T9PyfEcN8MVOH4_08aAs22EALw_wcB,Google Search,24-02-2021 14:57,SOUL AND SOIL
Syed Riyaz,syedriyaz7813@gmail.com,91,8892947813,,,YouTube,24-02-2021 10:37,SOUL AND SOIL
ClaWä¸ªFARHAAN,farhandandin925@gmail.com,91,9538688725,,,YouTube,24-02-2021 10:41,SOUL AND SOIL
Suresh Sneha,sureshsneha784@gmail.com,91,9611153923,,,YouTube,24-02-2021 11:39,SOUL AND SOIL
Pooja Prathaps,poojaprathap24@gmail.com,91,9739280228,,,YouTube,24-02-2021 17:55,SOUL AND SOIL
bullibabu dasari,bullibabu.dasari@gmail.com,91,9966444829,,,YouTube,24-02-2021 18:46,SOUL AND SOIL
Muthu,muthuarivu77505@gmail.com,91,6383476035,,https://www.assetzpropertybangalore.com/sunandsanctum/?utm_source=SocialMedia&utm_medium=FB&utm_campaign=web_conversions_lookalike&fbclid=IwAR2G6CqRPgVNEwbD0zUF3ZVhjb2d67WpWMSwYWzXnyfMTKBC7hclxqK4C1Y,Social Media,24-02-2021 07:10,SUN AND SANCTUM
Kumar Kumi,kumarkumi8139996693@gmail.com,91,8139996693,,https://www.assetzpropertybangalore.com/sunandsanctum/?utm_source=SocialMedia&utm_medium=FB&utm_campaign=web_conversions_lookalike&fbclid=IwAR3HDpK2ZFYTVxIUnH4p06qgK5vwIS7rSKqWYCsExcwNvf3Mc3rBpkrxct8,Social Media,24-02-2021 12:05,SUN AND SANCTUM
naveena kumari,naveenakumari6682@gmail.com,91,9964812984,,https://www.assetzpropertybangalore.com/sunandsanctum/?utm_source=SocialMedia&utm_medium=FB&utm_campaign=web_conversions_re&fbclid=IwAR3QpW55t3BkqDjY4UiRIEvO0_ebrHXmRJB9SmZW7UaDfZQvI4YnaKxmMeI,Social Media,24-02-2021 12:58,SUN AND SANCTUM
Channappa Hebbal,channappahebbal6290@gmail.com,91,8904793078,,https://www.assetzpropertybangalore.com/sunandsanctum/?utm_source=SocialMedia&utm_medium=FB&utm_campaign=web_conversions_re&fbclid=IwAR3H55B4L_9t3Kl3Q6W23lYGa7gBbrMeaZxJ1B-mqOnEZCTdMRHxUQDYwn0,Social Media,24-02-2021 21:22,SUN AND SANCTUM
Natasha,marketing@assetzpropertyprojects.com,91,7889527128,,https://www.assetzproperty.com/sunandsanctum/contact/,Google Search,24-02-2021 10:25,SUN AND SANCTUM
asa,asa@gdg.com,91,9090908978,,https://www.assetzproperty.com/sunandsanctum/contact/,Google Search,24-02-2021 14:38,SUN AND SANCTUM
Ajay Kumar,ajaymahto9731@gmail.com,,9.19731E+11,,,Facebook,"24/02/2021, 22:52",38 & Banyan
Sindu Menon,sinumenon@gmail.com,,9.18296E+11,,,Facebook,"24/02/2021, 22:33",Earth & Essence
Parthasarathy Bhaskara,partha1687@gmail.com,,9199802 78555,,,Facebook,"24/02/2021, 22:27",Soul & Soil
Libin Jose Meledam,libinmeledam@gmail.com,,9.19612E+11,,,Facebook,"24/02/2021, 22:21",Soul & Soil
Arul A,aarul.be@gmail.com,,9.19036E+11,,,Facebook,"24/02/2021, 22:12",Soul & Soil
Divya Nethri,divyanethri001@gmail.com,,15107895765,,,Facebook,"24/02/2021, 22:09",Earth & Essence
Divya Pandey,divya04.chromous@gmail.com,,9.19965E+11,,,Facebook,"24/02/2021, 21:27",Soul & Soil
Veeru Veer,veerakundan@123gmail.com,,9.19035E+11,,,Facebook,"24/02/2021, 21:06",Earth & Essence
Viney Gowda,Vinayvinay.676@gmail.com,,9.10985E+12,,,Facebook,"24/02/2021, 20:47",Marq 2
Kankipati NagaVarma,k_nagavarma@yahoo.com,,3.30769E+11,,,Facebook,"24/02/2021, 20:46",Earth & Essence
Sudheesh Mangad,sudheesh.mangad@gmail.com,,9886924191,,,Facebook,"24/02/2021, 20:33",Soul & Soil
Shivakumar Jalibenchi,jalibenchi3168@gmail.com,,9.18095E+11,,,Facebook,"24/02/2021, 20:26",Earth & Essence
Gunjan Tewari,tewari.gunjan@gmail.com,,9.19946E+11,,,Facebook,"24/02/2021, 20:23",Marq 2
Sohail Sohail Sohail,suhailsuhail45611@gmail.com,,9.19574E+11,,,Facebook,"24/02/2021, 20:13",Earth & Essence Plots
Raman K,rkrs2918@gmail.com,,9.19835E+11,,,Facebook,"24/02/2021, 20:07",Soul & Soil
Indresh Guruswamy,indreshguruswamy@gmail.com,,9.10997E+12,,,Facebook,"24/02/2021, 19:34",Earth & Essence
Ashok AS,ashokas08@gmail.com,,8179289878,,,Facebook,"24/02/2021, 18:49",Earth & Essence Plots
Mohit Saxena,mohitsaxena.ka@gmail.com,,9.18175E+11,,,Facebook,"24/02/2021, 18:35",Marq 2
liza Shaikh,haskuteddu786@gmail.com,,9.18861E+11,,,Facebook,"24/02/2021, 18:21",Canvas & Cove
Sk Anwar,ask40796@gmail.com,,9.19886E+11,,,Facebook,"24/02/2021, 17:46",Earth & Essence Plots
Subramani Ashwath,venuvathy@gmail.com,,9.18893E+11,,,Facebook,"24/02/2021, 17:44",Soul & Soil
Manju Manju,Manjumanju04951@gmil.c,,9080720538,,,Facebook,"24/02/2021, 17:39",Earth & Essence Plots
Satish Shetty,shetty.satish@gmail.com,,9.19687E+11,,,Facebook,"24/02/2021, 17:35",18 & Oak
Swapna Reddy,swapna.mba2006@gmail.com,,9.19059E+11,,,Facebook,"24/02/2021, 16:42",Soul & Soil
Sahadev Das,sahadebadasa350@gmail.com,,9.16E+11,,,Facebook,"24/02/2021, 15:06",Canvas & Cove
Manjunath K Manjunath,manjunathmanjunath55150@gmail.com,,9.19663E+11,,,Facebook,"24/02/2021, 15:05",Canvas & Cove
Harish P Kumar,bagulurharish@gmail.com,,9.199E+11,,,Facebook,"24/02/2021, 15:01",Earth & Essence
Shreyams Jain,jainsn02@gmail.com,,9.19987E+11,,,Facebook,"24/02/2021, 14:58",Earth & Essence
Shilpa JayaKeerthi,shilpakeerthi@gmail.com,,9.1091E+12,,,Facebook,"24/02/2021, 13:43",Earth & Essence
karri reddy reddy,suresh.me48@gmail.com,,9.19987E+11,,,Facebook,"24/02/2021, 13:37",63East
Daya R Pillai,dayarpillai@gmail.com,,9.1897E+11,,,Facebook,"24/02/2021, 12:25",Find Your Ikigai
Harsh Shrivastava,harsh.mpct@gmail.com,,9.18801E+11,,,Facebook,"24/02/2021, 11:03",Find Your Ikigai
Sonia Banday,sonasss@yahoo.com,,9.19945E+11,,,Facebook,"24/02/2021, 10:47",18 & Oak
Rohini Raghuwanshi,rohini.gtalk@gmail.com,,9.19945E+11,,,Facebook,"24/02/2021, 10:35",18 & Oak
Ashish Mohanty,monty_ashish@hotmail.com,,9.19841E+11,,,Facebook,"24/02/2021, 10:30",Leaves & Lives
Partha Sengupta,Psg_2211@yahoo.co.in,,9.109E+12,,,Facebook,"24/02/2021, 10:20",Earth & Essence
Ram Kumar,ram257095@gmail.com,,9.1886E+11,,,Facebook,"24/02/2021, 10:00",Canvas & Cove
Syed Munavar,syed.munavarsmm@gmail.com,,9.19739E+11,,,Facebook,"24/02/2021, 09:41",Earth & Essence
affu md,affu321@gmail.com,,9.1974E+11,,,Facebook,"24/02/2021, 09:08",Soul & Soil
Divya Pandey,divya04.chromous@gmail.com,,9.19965E+11,,,Facebook,"24/02/2021, 08:08",Marq 2
Rozario Arun Prakash,rozario4u@gmail.com,,9.19886E+11,,,Facebook,"24/02/2021, 08:04",Soul & Soil
Yadhu Nadan,Yadhunadan1987@gmil.com,,9632215865,,,Facebook,"24/02/2021, 07:45",Canvas & Cove
Naseer Nabiyavar,husenasabnabiyavar123@gmail.com,,9.18096E+11,,,Facebook,"24/02/2021, 07:27",Earth & Essence Plots
Dharmesh Bhatia,dharmeshdbhatia@gmail.com,,9.1897E+11,,,Facebook,"24/02/2021, 04:53",Find Your Ikigai
Ashwin Mysore,ashwinmj@gmail.com,,9.10123E+12,,,Facebook,"24/02/2021, 02:38",Earth & Essence
Haripriya Jagirdar,hp.jagirdar@gmail.com,,9.18793E+11,,,Facebook,"24/02/2021, 02:25",Soul & Soil
Parimita Dash,parimitadash@gmail.com,,9.1962E+11,,,Facebook,"24/02/2021, 00:55",Marq 2
,,,,,,,,
,,,,,,,,
,,,,,,,,
,,,,,,,,
,,,,,,,,
,,,,,,,,
,,,,,,,,
,,,,,,,,
,,,,,,,,
,,,,,,,,
,,,,,,,,
,,,,,,,,
,,,,,,,,
,,,,,,,,
,,,,,,,,
,,,,,,,,
,,,,,,,,
,,,,,,,,
,,,,,,,,
,,,,,,,,
,,,,,,,,
,,,,,,,,
,,,,,,,,
,,,,,,,,
,,,,,,,,
